<?xml version="1.0" encoding="UTF-8" standalone="no"?>
<!-- Created with Inkscape (http://www.inkscape.org/) -->

<svg
   xmlns:svg="http://www.w3.org/2000/svg"
   xmlns="http://www.w3.org/2000/svg"
   width="28"
   height="20"
   viewBox="0 0 100 100"
   version="1.1">
	<circle cx="40" cy="40" r="28" style="stroke-width:8px;stroke:black;fill:none" />
      <path
         d="M60,60 l35,35"
         style="fill:#000;stroke:black;stroke-width:8px" />
</svg>
